<svg xmlns="http://www.w3.org/2000/svg" width="59.468" height="37.033" viewBox="0 0 59.468 37.033">
    <g transform="translate(0 35.434) rotate(-90)">
        <path d="M0,33.828,22.641,16.807,0,0" transform="translate(33.828 33.486) rotate(90)" fill="none"
            stroke="#29c3ec" stroke-width="4" />
        <path d="M0,0V55.432" transform="translate(16.933)" fill="none" stroke="#29c3ec" stroke-width="4" />
    </g>
</svg>