<svg xmlns="http://www.w3.org/2000/svg" width="128.001" height="107.519" viewBox="0 0 128.001 107.519">
    <g transform="translate(0 -10.241)">
        <path
            d="M68.836,87.906H93.25l14.786,15.3a2.119,2.119,0,0,0,3.643-1.473V87.906h6.357a8.476,8.476,0,0,0,8.476-8.476V41.287a8.476,8.476,0,0,0-8.476-8.476H58.648c-2.317,0-5.908,1.653-6.331,3.931l-.139,8.484h9.038a8.008,8.008,0,0,1,8.014,8.088C69.1,65.895,68.836,87.906,68.836,87.906Z"
            fill="none" />
        <path
            d="M118.035,31.322h-6.987V20.2a9.976,9.976,0,0,0-9.965-9.964H48.108A9.976,9.976,0,0,0,38.143,20.2V43.738H9.965A9.976,9.976,0,0,0,0,53.7V91.845a9.976,9.976,0,0,0,9.965,9.964h6.987v12.342a3.606,3.606,0,0,0,6.2,2.507L37.5,101.809H60.821a9.976,9.976,0,0,0,9.965-9.964V89.394H92.619l14.346,14.846a3.608,3.608,0,0,0,6.2-2.5V89.4h4.868A9.977,9.977,0,0,0,128,79.43V41.286A9.978,9.978,0,0,0,118.035,31.322ZM41.119,20.2a7,7,0,0,1,6.988-6.988h52.975A7,7,0,0,1,108.07,20.2V31.322H60.824a9.979,9.979,0,0,0-9.967,9.968v2.448H41.119V20.2ZM67.81,91.845a7,7,0,0,1-6.988,6.987H36.869a1.492,1.492,0,0,0-1.07.453l-14.786,15.3a.631.631,0,0,1-1.084-.439V100.32a1.487,1.487,0,0,0-1.488-1.488H9.965a7,7,0,0,1-6.988-6.987V53.7a7,7,0,0,1,6.988-6.988H60.821A7,7,0,0,1,67.809,53.7V91.845ZM125.023,79.43a7,7,0,0,1-6.988,6.988h-6.356a1.487,1.487,0,0,0-1.488,1.488v13.828a.631.631,0,0,1-1.085.437L94.32,86.871a1.492,1.492,0,0,0-1.07-.453H70.786V53.7a9.976,9.976,0,0,0-9.965-9.964H53.834V41.29a7,7,0,0,1,6.99-6.991h57.211a7,7,0,0,1,6.988,6.988ZM13.938,81.616H56.054v2.977H13.938Zm0-10.6H56.054V74H13.938Zm0-10.595H56.054V63.4H13.938Z"
            fill="#fff" />
    </g>
</svg>